<< Name of manufacturer >>AT+CGMITelitOK
<< Model number >> AT+CGMMME910C1-E2OK
<< IMEI number  >> AT+CGSN353080090320578OK
<< Software version >>  AT+CGMRM0B.700004OK
<< IMSI number >>  AT+CIMI214074201519025OK
<<  get the current network status >>  AT#RFSTS#RFSTS: "222 88",113,-58,5FD7,01,,19,18,2,9324,"214074201519025","I WIND",3,2OK
received signal strength (<rssi>) and quality (<ber>)AT+CSQ+CSQ: 28,7OK
AT+CREG=1OK
AT#CGPADDR=1ERROR
AT#SGACT=1,1#SGACT: 10.49.152.213OK
AT#SD=1,0,10510,"modules.telit.com",0,0,1OK
Time required for conncetion: 0.8304168000000018
AT#SSEND=1>
Hello! Sent from python script , Go to the settings to connect to the COM of the modem by viewing the options under COM Port and changing the Baud rate based on the supported one by the modem (by default it is 9600). iteration :2OK
Time required for send data until reaching ctrl+z: 0.5737003999999999
AT#SRECV=1,240#SRECV: 1,229Hello! Sent from python script , Go to the settings to connect to the COM of the modem by viewing the options under COM Port and changing the Baud rate based on the supported one by the modem (by default it is 9600). iteration :2OK
Total Network Throughput : 2059.695877808762 bit/sec 
Total Network Latency : 0.8894517000000022 msec 
=Throughput for the received data: 6536.790188987298 bit/sec 
Time required for recieve data: 0.3157513000000023

AT#SH=1OK
Time required to close connection: 1.0055565999999985
AT#SGACT=1,0OK
